<svg width="48" height="48" viewBox="0 0 48 48" fill="none" xmlns="http://www.w3.org/2000/svg">
<path d="M38.742 18.5184H33.6837V17.6914C35.3311 16.4713 36.4015 14.514 36.4015 12.3112C36.4015 9.04774 34.0532 6.32225 30.9577 5.73584C30.0579 2.41369 27.0266 9.76213e-05 23.4453 0C21.4632 9.76213e-05 19.5609 0.766522 18.1308 2.10013C17.6201 1.96658 17.0921 1.89786 16.5613 1.89786C14.0379 1.89786 11.8366 3.42885 10.8776 5.63041C10.7468 5.62269 10.6153 5.61889 10.4835 5.61889C6.79341 5.61889 3.79126 8.62103 3.79126 12.3111C3.79126 14.3429 4.70255 16.1647 6.13651 17.3931V45.0713C6.13651 46.682 7.4544 47.9999 9.06515 47.9999H30.755C32.3658 47.9999 33.6837 46.682 33.6837 45.0713V40.7759H38.742C41.7564 40.7759 44.2088 38.3235 44.2088 35.3091V23.9851C44.2088 20.9707 41.7564 18.5184 38.742 18.5184ZM29.7092 15.2938H12.5732V21.2537C12.5732 22.2781 11.7427 23.1085 10.7184 23.1085C9.69403 23.1085 8.86356 22.2781 8.86356 21.2537V14.8135C8.04423 14.2813 7.50087 13.3588 7.50087 12.3111C7.50087 10.6665 8.83887 9.3285 10.4835 9.3285C10.8537 9.3285 11.2159 9.39625 11.5605 9.52979C12.1106 9.74309 12.7296 9.68198 13.2273 9.36491C13.7251 9.04783 14.0423 8.51287 14.0816 7.92412C14.1684 6.62507 15.2576 5.60746 16.5613 5.60746C16.9865 5.60746 17.3896 5.71094 17.7591 5.91487C18.5767 6.36608 19.6022 6.13911 20.1531 5.38508C20.9309 4.32033 22.1309 3.70961 23.4453 3.70961C25.62 3.70961 27.4073 5.409 27.5143 7.57844C27.5388 8.07631 27.7628 8.54342 28.1357 8.87426C28.5085 9.2052 28.9988 9.37252 29.4961 9.33738C29.5824 9.33133 29.6502 9.32859 29.7092 9.32859C31.3538 9.32859 32.6918 10.6666 32.6918 12.3112C32.6918 13.9558 31.3538 15.2938 29.7092 15.2938ZM39.1325 35.3092C39.1325 35.5173 38.9501 35.6997 38.742 35.6997H33.6837V23.5947H38.742C38.9501 23.5947 39.1325 23.7771 39.1325 23.9852V35.3092Z" fill="white"/>
</svg>
